<svg data-name="fully-regulated" width="54" height="54" viewBox="0 0 54 54" fill="none" xmlns="http://www.w3.org/2000/svg">
<path d="M44.7188 5.94198C44.7188 3.55961 42.8623 1.68744 40.5 1.68744L9.28125 1.68744C6.91891 1.68744 5.0625 3.55961 5.0625 5.94198V11.0618C5.0625 11.9937 5.81802 12.7493 6.75 12.7493H11.8125L11.8125 48.4874C11.8125 50.8698 13.6689 52.742 16.0313 52.742L44.7188 52.742C47.0811 52.742 48.9375 50.8698 48.9375 48.4874V45.9204C48.9375 44.9884 48.182 44.2329 47.25 44.2329H44.7188L44.7188 5.94198ZM11.8125 11.0474H8.4375C7.50552 11.0474 6.75 10.2919 6.75 9.35994L6.75 5.94198C6.75 4.49527 7.84671 3.38926 9.28125 3.38926C10.7158 3.38926 11.8125 4.49527 11.8125 5.94198V11.0474ZM13.5 48.4874L13.5 5.94198C13.5 5.0059 13.1626 4.15499 12.6562 3.38926L40.5 3.38926C41.9345 3.38926 43.0312 4.49527 43.0312 5.94198L43.0313 44.2329L20.25 44.2329C19.318 44.2329 18.5625 44.9884 18.5625 45.9204V48.4874C18.5625 49.9342 17.4658 51.0402 16.0313 51.0402C14.5967 51.0402 13.5 49.9342 13.5 48.4874ZM45.5625 45.9347C46.4945 45.9347 47.25 46.6902 47.25 47.6222V48.4874C47.25 49.9342 46.1533 51.0402 44.7188 51.0402L19.4063 51.0402C19.997 50.2744 20.25 49.4235 20.25 48.4874V47.6222C20.25 46.6902 21.0055 45.9347 21.9375 45.9347L45.5625 45.9347Z" fill="#161616"/>
<path d="M34.5977 29.692C34.5977 29.2161 34.9834 28.8304 35.4593 28.8304H40.5848C41.0606 28.8304 41.4464 29.2161 41.4464 29.692C41.4464 30.1679 41.0607 30.5537 40.5848 30.5537H35.4593C34.9834 30.5537 34.5977 30.1679 34.5977 29.692Z" fill="#161616"/>
<path d="M15.1218 29.692C15.1218 29.2161 15.5076 28.8304 15.9835 28.8304L32.0242 28.8304C32.5001 28.8304 32.8859 29.2161 32.8859 29.692C32.8859 30.1679 32.5001 30.5537 32.0242 30.5537L15.9835 30.5537C15.5076 30.5537 15.1218 30.1679 15.1218 29.692Z" fill="#161616"/>
<path d="M24.5386 33.1387C24.5386 32.6629 24.9244 32.2771 25.4003 32.2771H40.5848C41.0607 32.2771 41.4465 32.6629 41.4465 33.1387C41.4465 33.6146 41.0607 34.0004 40.5848 34.0004H25.4003C24.9244 34.0004 24.5386 33.6146 24.5386 33.1387Z" fill="#161616"/>
<path d="M15.1218 33.1387C15.1218 32.6629 15.5076 32.2771 15.9835 32.2771H21.965C22.4409 32.2771 22.8267 32.6629 22.8267 33.1387C22.8267 33.6146 22.4409 34.0004 21.965 34.0004H15.9835C15.5076 34.0004 15.1218 33.6146 15.1218 33.1387Z" fill="#161616"/>
<path d="M30.5315 40.0322C30.5315 39.5563 30.9173 39.1705 31.3932 39.1705H40.5851C41.061 39.1705 41.4467 39.5563 41.4467 40.0322C41.4467 40.5081 41.061 40.8939 40.5851 40.8939H31.3932C30.9173 40.8939 30.5315 40.5081 30.5315 40.0322Z" fill="#161616"/>
<path d="M15.1218 40.0322C15.1218 39.5563 15.5076 39.1705 15.9835 39.1705H27.9577C28.4336 39.1705 28.8194 39.5563 28.8194 40.0322C28.8194 40.5081 28.4336 40.8939 27.9577 40.8939H15.9835C15.5076 40.8939 15.1218 40.5081 15.1218 40.0322Z" fill="#161616"/>
<path d="M26.8472 19.1011L27.8564 19.7827L28.8655 19.1011C31.8921 17.0573 33.742 13.5654 33.742 9.90348V7.09279L27.8564 5.13416L21.9707 7.09279V9.90348C21.9707 13.5654 23.8206 17.0573 26.8472 19.1011ZM23.6523 8.28543L27.8564 6.83746L32.0604 8.28543V9.90348C32.0604 13.0543 30.5471 15.9503 27.9405 17.7384H27.8564L27.7722 17.6536C25.1656 15.9503 23.6523 12.9695 23.6523 9.81824V8.28543Z" fill="#168050"/>
<path d="M30.3176 10.2613L28.7005 10.0888C28.5387 11.5538 27.8111 12.9326 26.6792 13.7943L27.5687 15.2589C29.1048 14.0526 30.1557 12.243 30.3176 10.2613Z" fill="#168050"/>
<path d="M20.2581 36.5855C20.2581 36.1096 20.6438 35.7238 21.1197 35.7238H40.5848C41.0607 35.7238 41.4465 36.1096 41.4465 36.5855C41.4465 37.0614 41.0607 37.4472 40.5848 37.4472H21.1197C20.6438 37.4472 20.2581 37.0614 20.2581 36.5855Z" fill="#161616"/>
<path d="M15.1218 36.5855C15.1218 36.1096 15.5076 35.7238 15.9835 35.7238H17.6845C18.1604 35.7238 18.5462 36.1096 18.5462 36.5855C18.5462 37.0614 18.1604 37.4472 17.6845 37.4472H15.9835C15.5076 37.4472 15.1218 37.0614 15.1218 36.5855Z" fill="#161616"/>
<path d="M24.5386 26.3531C24.5386 25.9367 24.8761 25.5991 25.2925 25.5991L40.6925 25.5991C41.1089 25.5991 41.4465 25.9367 41.4465 26.3531C41.4465 26.7695 41.1089 27.107 40.6925 27.107L25.2925 27.107C24.8761 27.107 24.5386 26.7695 24.5386 26.3531Z" fill="#161616"/>
<path d="M15.1218 26.3531C15.1218 25.9367 15.4594 25.5991 15.8758 25.5991H22.0727C22.4891 25.5991 22.8267 25.9367 22.8267 26.3531C22.8267 26.7695 22.4891 27.107 22.0727 27.107H15.8758C15.4594 27.107 15.1218 26.7695 15.1218 26.3531Z" fill="#161616"/>
<path d="M21.9707 22.1524C21.9707 21.6765 22.3565 21.2907 22.8324 21.2907H32.8804C33.3563 21.2907 33.742 21.6765 33.742 22.1524C33.742 22.6283 33.3563 23.014 32.8804 23.014H22.8324C22.3565 23.014 21.9707 22.6283 21.9707 22.1524Z" fill="#161616"/>
</svg>
