<svg width="121" height="64" viewBox="0 0 121 64" fill="none" xmlns="http://www.w3.org/2000/svg">
<path opacity="0.5" fill-rule="evenodd" clip-rule="evenodd" d="M95.5348 30.7113C95.0765 31.0193 94.4114 31.1716 93.5013 31.1716H93.1063H92.5987L93.2908 27.5667H93.6416H93.9545C94.7099 27.5667 95.2618 27.684 95.642 27.922C95.9391 28.1086 96.2913 28.4781 96.2913 29.1792C96.2913 30.024 95.8816 30.4785 95.5348 30.7113ZM41.6947 35.2351H34.71L35.1614 32.8788H39.5425L40.0403 30.2248H35.7014L36.1208 27.8927H43.0932L41.6947 35.2351ZM99.2973 25.8704C98.2703 25.1914 96.7163 24.8494 94.6788 24.8494H89.3428L87.3593 35.2358H80.3692L80.8174 32.8794H85.0286L85.5294 30.2327L81.3207 30.24L81.7714 27.8937H86.1082L86.6852 24.8497H77.8756L75.9929 34.7029H72.7626L74.659 24.8497H70.0535L68.1708 34.7029H65.0211L66.9193 24.8497H62.3185L60.33 35.2361H53.2903L53.7338 32.8798H57.9641L58.4623 30.2483L54.2385 30.2445L54.687 27.8937H59.072L59.6461 24.8497H32.2006L30.6384 33.0806L27.5261 24.8494H22.7494L20.1785 38.2815H24.7401L26.2959 29.8243L29.3164 38.2815H45.6664L47.6538 27.8933H50.2121L48.2236 38.2815H91.2453L92.4914 31.7234L94.5112 38.2815H99.0753L96.9843 32.9231L97.4616 32.8236C98.5134 32.6064 99.3368 32.1384 99.9081 31.4372C100.48 30.7295 100.771 29.8209 100.771 28.7294C100.771 27.4583 100.29 26.5237 99.2973 25.8704Z" fill="#595959"/>
</svg>
