<svg data-name="sign-up" width="179" height="176" viewBox="0 0 179 176" fill="none" xmlns="http://www.w3.org/2000/svg">
<path opacity="0.25" d="M55.9493 23.8922C59.6076 23.8922 62.5828 26.8557 62.5828 30.4976C62.5828 34.138 59.606 37.0999 55.9477 37.0999C52.2909 37.0999 49.3157 34.1364 49.3157 30.4961C49.3157 26.8541 52.2925 23.8922 55.9493 23.8922Z" fill="#168D50"/>
<path opacity="0.25" d="M55.9463 46.3141C59.6046 46.3141 62.5799 49.2776 62.5799 52.918C62.5799 56.5599 59.6031 59.5218 55.9447 59.5218C52.288 59.5218 49.3127 56.5583 49.3127 52.9164C49.3127 49.276 52.288 46.3141 55.9463 46.3141Z" fill="#168D50"/>
<path opacity="0.25" d="M55.9432 68.7344C59.6015 68.7344 62.5767 71.6979 62.5767 75.3398C62.5767 78.9802 59.5999 81.9421 55.9416 81.9421C52.2848 81.9421 49.3096 78.9786 49.3096 75.3382C49.3096 71.6963 52.2848 68.7344 55.9432 68.7344Z" fill="#168D50"/>
<path opacity="0.25" d="M71.9254 26.094L114.308 26.0987L114.306 34.6798L71.9238 34.6751L71.9254 26.094Z" fill="#168D50"/>
<path opacity="0.25" d="M132.522 60.9276L128.963 63.577C128.497 63.9225 128.196 64.4297 128.112 65.0014C128.029 65.5731 128.175 66.1447 128.523 66.608L136.312 76.9826L134.904 78.0317L127.114 67.6571C126.767 67.1938 126.257 66.8938 125.683 66.8106C125.577 66.7949 125.472 66.7886 125.367 66.7886C124.902 66.7886 124.449 66.9378 124.069 67.2205L120.509 69.8699L116.639 52.246L132.522 60.9276ZM71.9233 41.5604L118.355 41.5667L118.354 50.9723L115.893 49.6264C115.525 49.427 115.071 49.4584 114.735 49.7081C114.399 49.9578 114.241 50.3834 114.329 50.7901L117.232 64.0104L71.9202 64.0041L71.9233 41.5604Z" fill="#168D50"/>
<path opacity="0.25" d="M71.9203 71.9614L114.303 71.9661L114.301 80.8268L71.9187 80.8221L71.9203 71.9614Z" fill="#168D50"/>
<path opacity="0.25" d="M72.5436 135.885L114.043 135.889C115.989 135.889 117.573 134.313 117.573 132.375L117.575 123.079L117.576 112.926L117.578 103.63C117.578 101.692 115.994 100.115 114.047 100.115L72.5484 100.111C70.6017 100.111 69.0178 101.687 69.0178 103.625L69.0146 132.37C69.0131 134.306 70.5969 135.883 72.5436 135.885Z" fill="#168D50"/>
<path d="M21.0718 126.111C20.5969 126.359 20.4139 126.945 20.6632 127.418C21.8795 129.72 23.2283 131.99 24.6717 134.163C24.8579 134.444 25.1687 134.598 25.4826 134.598C25.6672 134.598 25.8533 134.546 26.0189 134.438C26.467 134.143 26.59 133.543 26.2934 133.097C24.8847 130.975 23.569 128.762 22.3843 126.518C22.1335 126.044 21.5466 125.863 21.0718 126.111Z" fill="black"/>
<path d="M31.0019 39.4694C29.2808 41.4356 27.6401 43.5071 26.1288 45.6273C25.818 46.0638 25.9206 46.6685 26.3591 46.9779C26.5295 47.0988 26.7267 47.1569 26.9207 47.1569C27.2252 47.1569 27.5249 47.0156 27.7142 46.7486C29.1877 44.6818 30.7873 42.6606 32.4658 40.7431C32.8192 40.341 32.7766 39.7285 32.3712 39.3768C31.9689 39.0234 31.3552 39.0658 31.0019 39.4694Z" fill="black"/>
<path d="M20.1346 60.0224C21.1648 57.7028 22.3274 55.4051 23.5895 53.1955C23.8561 52.7306 23.692 52.1401 23.225 51.8763C22.7581 51.6109 22.1649 51.7726 21.8999 52.2391C20.6047 54.5068 19.4137 56.8626 18.3567 59.2403C18.139 59.7287 18.3615 60.3003 18.8537 60.5171C18.9814 60.5736 19.1155 60.6003 19.2465 60.6003C19.6172 60.5987 19.9737 60.3836 20.1346 60.0224Z" fill="black"/>
<path d="M16.6358 112.363C16.4859 111.85 15.9417 111.559 15.4305 111.705C14.9147 111.855 14.6181 112.393 14.7696 112.905C15.5015 115.404 16.3708 117.895 17.3504 120.31C17.5034 120.687 17.8679 120.915 18.2528 120.915C18.3743 120.915 18.4973 120.893 18.6172 120.844C19.1141 120.643 19.3555 120.079 19.1536 119.583C18.196 117.227 17.3488 114.798 16.6358 112.363Z" fill="black"/>
<path d="M12.6065 90.6624C12.6128 90.6624 12.6175 90.6624 12.6238 90.6624C13.1523 90.6624 13.5861 90.24 13.5956 89.7107C13.6287 87.8104 13.7344 85.8819 13.9095 83.9769C13.9679 83.3424 14.0342 82.7095 14.1083 82.0813C14.1698 81.5505 13.7881 81.0699 13.2549 81.0071C12.7311 80.949 12.2389 81.3259 12.1758 81.8568C12.1001 82.5022 12.0323 83.1508 11.9723 83.801C11.7941 85.7531 11.6852 87.7303 11.6505 89.6762C11.6426 90.2117 12.0701 90.653 12.6065 90.6624Z" fill="black"/>
<path d="M14.8609 104.927C14.3971 102.433 14.0564 99.8858 13.845 97.3511C13.8008 96.8171 13.3228 96.4245 12.7959 96.4653C12.2611 96.5093 11.862 96.9773 11.9062 97.5097C12.1223 100.107 12.4725 102.721 12.9474 105.277C13.0341 105.744 13.4427 106.069 13.9018 106.069C13.9601 106.069 14.0201 106.064 14.08 106.053C14.6101 105.957 14.9587 105.453 14.8609 104.927Z" fill="black"/>
<path d="M90.8322 167.449C90.8306 167.449 90.8291 167.449 90.8259 167.449H90.4931C88.1425 167.449 85.7541 167.341 83.3973 167.126L83.1527 167.104C82.6227 167.043 82.1447 167.445 82.0942 167.979C82.0437 168.511 82.4365 168.982 82.9729 169.032L83.219 169.056C85.6358 169.276 88.0841 169.387 90.4931 169.387H90.8385C91.3749 169.384 91.8087 168.949 91.8056 168.414C91.8008 167.878 91.367 167.449 90.8322 167.449Z" fill="black"/>
<path d="M75.5537 166.006C73.3672 165.581 71.1791 165.053 69.0463 164.44C68.5273 164.293 67.9909 164.59 67.8426 165.102C67.6943 165.615 67.9909 166.152 68.5068 166.3C70.6933 166.928 72.9397 167.468 75.1798 167.903C75.2429 167.916 75.306 167.922 75.3675 167.922C75.8234 167.922 76.2304 167.602 76.3204 167.14C76.4229 166.617 76.079 166.108 75.5537 166.006Z" fill="black"/>
<path d="M106.08 165.859C103.585 166.375 101.031 166.771 98.4941 167.035C97.9609 167.092 97.5728 167.567 97.628 168.098C97.6801 168.596 98.1029 168.965 98.5935 168.965C98.6282 168.965 98.6613 168.964 98.696 168.96C101.297 168.69 103.916 168.284 106.476 167.754C107.002 167.646 107.339 167.132 107.231 166.609C107.122 166.085 106.607 165.75 106.08 165.859Z" fill="black"/>
<path d="M120.708 161.263C118.359 162.269 115.937 163.165 113.511 163.927C112.998 164.087 112.714 164.632 112.875 165.141C113.006 165.554 113.39 165.818 113.803 165.818C113.899 165.818 113.999 165.804 114.095 165.774C116.584 164.993 119.067 164.073 121.475 163.043C121.968 162.832 122.195 162.262 121.984 161.771C121.774 161.281 121.203 161.053 120.708 161.263Z" fill="black"/>
<path d="M165.689 71.2922C165.166 71.421 164.849 71.9471 164.98 72.4654C165.597 74.9294 166.094 77.4501 166.458 79.9597C166.528 80.4418 166.944 80.7889 167.419 80.7889C167.465 80.7889 167.512 80.7858 167.559 80.7795C168.091 80.7025 168.46 80.2125 168.383 79.6833C168.009 77.1108 167.5 74.5243 166.867 71.9989C166.736 71.4791 166.204 71.1619 165.689 71.2922Z" fill="black"/>
<path d="M129.048 24.8376C131.249 26.1128 133.413 27.5184 135.483 29.0119C135.657 29.136 135.855 29.1972 136.054 29.1972C136.355 29.1972 136.652 29.059 136.841 28.7983C137.157 28.3649 137.061 27.7602 136.625 27.4461C134.503 25.9134 132.284 24.4732 130.028 23.165C129.566 22.8965 128.969 23.0519 128.698 23.5137C128.428 23.977 128.584 24.569 129.048 24.8376Z" fill="black"/>
<path d="M157.349 132.333C157.633 131.88 157.493 131.283 157.037 131C156.583 130.717 155.982 130.856 155.698 131.311C154.349 133.469 152.877 135.583 151.32 137.591C150.992 138.015 151.071 138.623 151.497 138.95C151.673 139.085 151.883 139.151 152.09 139.151C152.382 139.151 152.669 139.021 152.861 138.774C154.458 136.713 155.967 134.546 157.349 132.333Z" fill="black"/>
<path d="M168.102 86.5606C167.566 86.5841 167.149 87.0364 167.171 87.5688C167.219 88.6729 167.244 89.7879 167.242 90.8826C167.242 92.3164 167.201 93.7738 167.119 95.2139C167.089 95.7479 167.499 96.2049 168.036 96.2347C168.055 96.2347 168.072 96.2363 168.091 96.2363C168.604 96.2363 169.033 95.8374 169.061 95.3223C169.145 93.846 169.187 92.3525 169.187 90.8826C169.187 89.7597 169.164 88.6163 169.115 87.4856C169.091 86.9532 168.632 86.5433 168.102 86.5606Z" fill="black"/>
<path d="M167.422 102.014C166.889 101.934 166.395 102.294 166.312 102.821C165.917 105.34 165.392 107.86 164.751 110.308C164.616 110.825 164.928 111.354 165.447 111.489C165.529 111.509 165.611 111.52 165.693 111.52C166.125 111.52 166.52 111.231 166.633 110.796C167.29 108.285 167.828 105.702 168.233 103.12C168.317 102.591 167.954 102.096 167.422 102.014Z" fill="black"/>
<path d="M148.37 37.8582C146.598 35.9406 144.71 34.0906 142.759 32.3615C142.356 32.005 141.741 32.0411 141.386 32.44C141.03 32.8389 141.064 33.4514 141.465 33.8063C143.369 35.4946 145.21 37.2991 146.939 39.1695C147.132 39.3768 147.392 39.482 147.654 39.482C147.889 39.482 148.126 39.3972 148.312 39.226C148.708 38.8648 148.733 38.2524 148.37 37.8582Z" fill="black"/>
<path d="M163.699 117.029C163.196 116.844 162.636 117.098 162.45 117.601C161.563 119.983 160.544 122.347 159.421 124.626C159.184 125.106 159.383 125.686 159.866 125.921C160.003 125.989 160.15 126.02 160.293 126.02C160.653 126.02 160.999 125.821 161.167 125.479C162.317 123.142 163.363 120.718 164.274 118.275C164.46 117.772 164.203 117.216 163.699 117.029Z" fill="black"/>
<path d="M146.13 155.308C146.121 155.255 146.103 155.203 146.091 155.15C146.078 155.103 146.07 155.054 146.054 155.007C146.037 154.953 146.012 154.903 145.99 154.85C145.971 154.806 145.956 154.76 145.934 154.718C145.908 154.664 145.874 154.616 145.844 154.566C145.821 154.526 145.8 154.485 145.773 154.448C145.74 154.399 145.701 154.355 145.663 154.31C145.633 154.273 145.608 154.234 145.575 154.2L137.064 142.289L137.07 91.7872C137.07 88.2081 134.147 85.2964 130.552 85.2964L49.6142 85.287C46.0253 85.287 43.1068 88.1971 43.1052 91.7762L43.0989 142.278L34.5739 154.185C34.5407 154.22 34.5155 154.259 34.4855 154.297C34.4492 154.343 34.4098 154.385 34.3767 154.434C34.3514 154.471 34.3309 154.512 34.3073 154.55C34.2757 154.602 34.2426 154.652 34.2158 154.704C34.1953 154.743 34.1826 154.785 34.1653 154.826C34.1416 154.881 34.1164 154.936 34.0974 154.993C34.0832 155.037 34.0738 155.084 34.0627 155.129C34.0485 155.184 34.0312 155.238 34.0217 155.294C34.0123 155.348 34.0091 155.401 34.0044 155.454C33.9996 155.505 33.9902 155.553 33.9886 155.604C33.987 155.666 33.9917 155.731 33.9949 155.795C33.9965 155.836 33.9949 155.875 33.9996 155.916C34.0075 155.996 34.0249 156.076 34.0422 156.156C34.047 156.18 34.0485 156.204 34.0549 156.227C34.0817 156.331 34.1148 156.433 34.1574 156.532C34.5029 157.361 35.3058 157.897 36.2066 157.897L78.07 157.901L102.211 157.904L143.944 157.909C144.846 157.909 145.652 157.375 145.996 156.547C146.037 156.447 146.072 156.345 146.098 156.243C146.105 156.216 146.108 156.188 146.113 156.161C146.128 156.086 146.146 156.009 146.154 155.933C146.158 155.886 146.157 155.841 146.158 155.794C146.162 155.736 146.166 155.679 146.165 155.621C146.163 155.571 146.154 155.52 146.149 155.47C146.141 155.414 146.139 155.36 146.13 155.308ZM45.0503 91.7762C45.0503 89.265 47.098 87.2234 49.6142 87.2234L130.552 87.2328C133.074 87.2328 135.125 89.276 135.125 91.7872L135.119 141.631L45.044 141.62L45.0503 91.7762ZM79.403 155.963L80.2659 153.301L100.012 153.304L100.873 155.966L79.403 155.963ZM144.198 155.805C144.166 155.88 144.097 155.971 143.942 155.971L102.918 155.966L101.714 152.247C101.691 152.175 101.661 152.108 101.621 152.043C101.369 151.627 100.91 151.368 100.425 151.368L79.8557 151.365C79.3714 151.365 78.9124 151.622 78.66 152.04C78.6205 152.105 78.589 152.172 78.5669 152.244L77.3616 155.963L36.2066 155.959C36.0568 155.959 35.9873 155.866 35.9542 155.789C35.9227 155.712 35.9069 155.597 36.0142 155.491C36.0489 155.456 36.0804 155.42 36.1088 155.382L44.5629 144.007L135.601 144.018L144.018 155.365L144.03 155.382C144.032 155.384 144.033 155.385 144.033 155.387L144.04 155.396C144.068 155.434 144.1 155.472 144.134 155.506C144.245 155.611 144.231 155.728 144.198 155.805Z" fill="black"/>
<path d="M134.745 146.426L45.5361 146.415C44.9997 146.415 44.5643 146.848 44.5627 147.382C44.5627 147.916 44.9981 148.349 45.5345 148.351L134.743 148.362C135.279 148.362 135.715 147.929 135.716 147.395C135.718 146.859 135.281 146.426 134.745 146.426Z" fill="black"/>
<path d="M130.607 90.4755L49.5622 90.4661C48.4942 90.4661 47.625 91.3298 47.625 92.3946L47.6187 137.312C47.6187 138.375 48.4879 139.24 49.5559 139.24L130.601 139.25C131.669 139.25 132.538 138.386 132.538 137.321L132.544 92.404C132.544 91.3393 131.675 90.4755 130.607 90.4755ZM130.594 137.312L49.5638 137.31L49.5622 92.4009L130.599 92.4025L130.594 137.312ZM130.601 138.281V137.313V138.281Z" fill="black"/>
<path d="M69.3283 132.743L110.827 132.748C112.774 132.748 114.358 131.171 114.358 129.233L114.359 119.938L114.361 109.785L114.362 100.489C114.362 98.551 112.779 96.9742 110.832 96.9742L69.333 96.9695C67.3863 96.9695 65.8025 98.5462 65.8025 100.484L65.7993 129.229C65.7977 131.165 67.3816 132.742 69.3283 132.743ZM112.414 118.969L102.884 118.967C100.609 118.967 98.759 117.123 98.759 114.856C98.759 112.591 100.609 110.749 102.884 110.749L112.414 110.75V118.969ZM67.746 100.481C67.746 99.611 68.4575 98.9027 69.3314 98.9027L110.83 98.9075C111.704 98.9075 112.416 99.6157 112.416 100.486L112.414 108.814L102.884 108.812C99.5367 108.812 96.8139 111.523 96.8139 114.857C96.8139 118.19 99.5367 120.902 102.883 120.902L112.413 120.904L112.411 129.23C112.411 130.1 111.7 130.809 110.826 130.809L69.3267 130.804C68.4528 130.804 67.7413 130.096 67.7413 129.224L67.746 100.481Z" fill="black"/>
<path d="M102.023 114.859C102.023 115.654 102.67 116.298 103.468 116.298C104.346 116.298 104.914 115.734 104.914 114.859C104.914 114.064 104.267 113.421 103.468 113.421C102.67 113.421 102.023 114.064 102.023 114.859Z" fill="black"/>
<path d="M53.0265 35.8953C57.756 35.8953 61.6052 32.0649 61.6067 27.3567C61.6067 22.6484 57.7591 18.8164 53.0296 18.8148C48.3001 18.8148 44.4509 22.6452 44.4509 27.3535C44.4494 32.0634 48.297 35.8953 53.0265 35.8953ZM53.0296 20.7512C56.688 20.7512 59.6632 23.7147 59.6632 27.3567C59.6632 30.997 56.6864 33.9589 53.028 33.9589C49.3713 33.9589 46.396 30.9955 46.396 27.3551C46.396 23.7131 49.3713 20.7512 53.0296 20.7512Z" fill="black"/>
<path d="M53.025 58.3155C57.7545 58.3155 61.6037 54.4851 61.6053 49.7768C61.6053 45.0685 57.7576 41.2366 53.0282 41.2366C48.2987 41.2366 44.4495 45.067 44.4495 49.7753C44.4463 54.4836 48.2939 58.3155 53.025 58.3155ZM53.0266 43.173C56.6849 43.173 59.6602 46.1365 59.6602 49.7768C59.6602 53.4188 56.6833 56.3807 53.025 56.3807C49.3683 56.3807 46.393 53.4172 46.393 49.7753C46.393 46.1333 49.3683 43.1714 53.0266 43.173Z" fill="black"/>
<path d="M53.0218 80.7356C57.7513 80.7356 61.6005 76.9052 61.6021 72.1969C61.6021 67.4886 57.7545 63.6566 53.025 63.655C48.2955 63.655 44.4463 67.4854 44.4463 72.1937C44.4447 76.9036 48.2923 80.7356 53.0218 80.7356ZM53.0234 65.593C56.6817 65.593 59.657 68.5565 59.657 72.1984C59.657 75.8388 56.6802 78.8007 53.0218 78.8007C49.3651 78.8007 46.3898 75.8372 46.3898 72.1969C46.3898 68.5533 49.3667 65.5914 53.0234 65.593Z" fill="black"/>
<path d="M68.0323 33.469L112.36 33.4738C112.896 33.4738 113.332 33.0403 113.333 32.5063L113.335 21.9888C113.335 21.4549 112.899 21.0214 112.363 21.0198L68.0355 21.0151C67.4991 21.0151 67.0637 21.4486 67.0621 21.9826L67.0605 32.5001C67.0605 33.0356 67.4959 33.469 68.0323 33.469ZM69.0057 22.9515L111.388 22.9563L111.386 31.5374L69.0041 31.5326L69.0057 22.9515Z" fill="black"/>
<path d="M68.0291 62.799L114.739 62.8053L115.851 67.8701C115.958 68.3554 116.3 68.7496 116.769 68.9223C117.238 69.0982 117.755 69.0229 118.154 68.7245L122.317 65.6275C122.42 65.5521 122.563 65.5725 122.639 65.6746L131.011 76.825C131.166 77.0307 131.396 77.1674 131.652 77.2035C131.697 77.2098 131.745 77.2129 131.79 77.2129C131.999 77.2129 132.204 77.1454 132.372 77.0197L135.34 74.8116C135.771 74.4913 135.857 73.8851 135.537 73.4563L127.165 62.3059C127.089 62.2054 127.11 62.0609 127.212 61.9855L131.375 58.8885C131.775 58.5917 131.992 58.1174 131.958 57.6212C131.923 57.1265 131.641 56.6883 131.204 56.448L117.384 48.8925L117.386 37.4562C117.386 36.9223 116.95 36.4888 116.414 36.4872L68.0386 36.481C67.5022 36.481 67.0668 36.9144 67.0652 37.4484L67.0621 61.8285C67.0558 62.3656 67.4912 62.799 68.0291 62.799ZM129.604 57.7861L126.043 60.4355C125.578 60.781 125.277 61.2882 125.193 61.8599C125.109 62.4316 125.256 63.0032 125.603 63.4665L133.393 73.8411L131.984 74.8902L124.194 64.5156C123.847 64.0523 123.338 63.7523 122.764 63.6691C122.658 63.6534 122.552 63.6471 122.448 63.6471C121.983 63.6471 121.53 63.7963 121.15 64.079L117.589 66.7284L113.72 49.1045L129.604 57.7861ZM69.004 38.4189L115.436 38.4252L115.434 47.8308L112.973 46.4849C112.606 46.2855 112.151 46.3169 111.815 46.5666C111.479 46.8163 111.322 47.2419 111.41 47.6486L114.313 60.8689L69.0009 60.8626L69.004 38.4189Z" fill="black"/>
<path d="M68.0257 79.6172L112.353 79.622C112.89 79.622 113.325 79.1885 113.327 78.6545L113.328 67.8575C113.328 67.3235 112.893 66.8901 112.356 66.8885L68.0289 66.8838C67.4925 66.8838 67.0571 67.3172 67.0555 67.8512L67.054 78.6483C67.054 79.1838 67.4894 79.6172 68.0257 79.6172ZM69.0006 68.8202L111.383 68.8249L111.381 77.6855L68.9991 77.6808L69.0006 68.8202Z" fill="black"/>
<path d="M53.025 54.1928C55.4718 54.1928 57.4627 52.2124 57.4627 49.7751C57.4627 47.3392 55.4734 45.3573 53.025 45.3573C50.5783 45.3573 48.5874 47.3377 48.5874 49.7751C48.5874 52.2109 50.5783 54.1928 53.025 54.1928ZM53.0266 47.2937C54.4007 47.2937 55.5191 48.4072 55.5191 49.7751C55.5191 51.1429 54.4007 52.2564 53.0266 52.2564C51.6526 52.2564 50.5341 51.1429 50.5341 49.7751C50.5341 48.4072 51.651 47.2937 53.0266 47.2937Z" fill="black"/>
<path d="M73.4227 44.8564L81.1164 44.858C81.6528 44.858 82.0882 44.4246 82.0897 43.8906C82.0897 43.3566 81.6543 42.9232 81.118 42.9216L73.4243 42.92C72.8879 42.92 72.4525 43.3535 72.4509 43.8875C72.4494 44.423 72.8863 44.8564 73.4227 44.8564Z" fill="black"/>
<path d="M85.8092 44.8578L93.5029 44.8594C94.0392 44.8594 94.4746 44.4259 94.4762 43.8919C94.4762 43.358 94.0408 42.9245 93.5044 42.923L85.8107 42.9214C85.2744 42.9214 84.839 43.3548 84.8374 43.8888C84.8358 44.4243 85.2728 44.8578 85.8092 44.8578Z" fill="black"/>
<path d="M111.749 43.8938C111.749 43.3598 111.314 42.9264 110.777 42.9248L98.1965 42.9232C97.6601 42.9232 97.2247 43.3567 97.2231 43.8906C97.2231 44.4246 97.6586 44.858 98.1949 44.8596L110.776 44.8612C111.314 44.8612 111.749 44.4277 111.749 43.8938Z" fill="black"/>
<path d="M98.0068 48.528L73.4223 48.5249C72.886 48.5249 72.4506 48.9584 72.449 49.4923C72.449 50.0263 72.8844 50.4597 73.4207 50.4613L98.0052 50.4645C98.5416 50.4645 98.977 50.031 98.9786 49.497C98.9786 48.9615 98.5432 48.528 98.0068 48.528Z" fill="black"/>
<path d="M92.3753 54.1334L73.4211 54.1318C72.8847 54.1318 72.4493 54.5653 72.4478 55.0992C72.4478 55.6332 72.8832 56.0667 73.4195 56.0682L92.3737 56.0698C92.9101 56.0698 93.3455 55.6364 93.3471 55.1024C93.3471 54.5669 92.9117 54.1334 92.3753 54.1334Z" fill="black"/>
<path d="M55.1925 164.762C52.6338 164.762 50.553 166.834 50.553 169.381C50.553 171.928 52.6338 174 55.1925 174C57.7513 174 59.8321 171.928 59.8337 169.381C59.8337 166.835 57.7513 164.762 55.1925 164.762ZM55.1925 172.063C53.7065 172.063 52.4981 170.859 52.4981 169.381C52.4981 167.902 53.7065 166.699 55.1925 166.699C56.6786 166.699 57.887 167.903 57.887 169.381C57.887 170.86 56.6786 172.065 55.1925 172.063Z" fill="black"/>
<path d="M18.0333 69.6733C18.0333 67.126 15.9525 65.0545 13.3937 65.053C10.8365 65.053 8.75415 67.1244 8.75415 69.6717C8.75415 72.2191 10.8349 74.2905 13.3937 74.2905C15.9509 74.2921 18.0333 72.2206 18.0333 69.6733ZM10.6993 69.6717C10.6993 68.1924 11.9077 66.9894 13.3937 66.9894C14.8798 66.9894 16.0882 68.1939 16.0882 69.6733C16.0882 71.1527 14.8782 72.3557 13.3921 72.3557C11.9077 72.3557 10.6993 71.1511 10.6993 69.6717Z" fill="black"/>
<path d="M157.495 148.555C154.936 148.555 152.855 150.627 152.855 153.174C152.855 155.721 154.936 157.793 157.495 157.793C160.053 157.793 162.134 155.721 162.134 153.174C162.134 150.628 160.052 148.557 157.495 148.555ZM157.493 155.858C156.007 155.858 154.799 154.653 154.799 153.176C154.799 151.696 156.007 150.493 157.493 150.493C158.979 150.493 160.187 151.698 160.187 153.177C160.187 154.655 158.979 155.858 157.493 155.858Z" fill="black"/>
<path d="M28.3444 147.38H25.4575V144.506C25.4575 143.971 25.0221 143.539 24.4857 143.537C23.9493 143.537 23.5139 143.971 23.5124 144.505V147.379H20.6254C20.0891 147.379 19.6537 147.812 19.6521 148.346C19.6521 148.882 20.0875 149.314 20.6239 149.315H23.5108V152.189C23.5108 152.725 23.9462 153.157 24.4825 153.158C25.0189 153.158 25.4543 152.725 25.4559 152.191V149.317H28.3428C28.8792 149.317 29.3146 148.883 29.3161 148.349C29.3161 147.814 28.8807 147.38 28.3444 147.38Z" fill="black"/>
<path d="M89.4933 8.77779H92.3802V11.6518C92.3802 12.1873 92.8156 12.6192 93.3519 12.6208C93.8883 12.6208 94.3237 12.1873 94.3253 11.6533V8.77936H97.2122C97.7486 8.77936 98.184 8.34591 98.1855 7.81195C98.1871 7.27798 97.7501 6.84453 97.2138 6.84296H94.3269V3.96899C94.3269 3.43345 93.8915 3.00157 93.3551 3C92.8187 3 92.3833 3.43345 92.3817 3.96741V6.84139H89.4948C88.9585 6.84139 88.5231 7.27484 88.5215 7.80881C88.5215 8.34434 88.9569 8.77779 89.4933 8.77779Z" fill="black"/>
<path d="M155.4 46.3391H160.864V51.7792C160.864 52.3147 161.3 52.7466 161.836 52.7482C162.372 52.7482 162.808 52.3147 162.809 51.7808V46.3406H168.274C168.81 46.3406 169.246 45.9072 169.247 45.3732C169.247 44.8377 168.812 44.4058 168.275 44.4042H162.811V38.9641C162.811 38.4286 162.375 37.9967 161.839 37.9951C161.303 37.9951 160.867 38.4286 160.866 38.9625V44.4027H155.401C154.865 44.4027 154.429 44.8361 154.428 45.3701C154.428 45.9056 154.863 46.3391 155.4 46.3391Z" fill="black"/>
<path d="M22.8954 20.9567H28.36V26.3969C28.36 26.9324 28.7954 27.3643 29.3317 27.3659C29.8681 27.3659 30.3035 26.9324 30.3051 26.3985V20.9583H35.7697C36.3061 20.9583 36.7415 20.5249 36.7431 19.9909C36.7431 19.4554 36.3077 19.0235 35.7713 19.0219H30.3067V13.5818C30.3067 13.0462 29.8713 12.6144 29.3349 12.6128C28.7985 12.6128 28.3631 13.0462 28.3616 13.5802V19.0203H22.8969C22.3606 19.0203 21.9252 19.4538 21.9236 19.9878C21.922 20.5233 22.3574 20.9567 22.8954 20.9567Z" fill="black"/>
<path d="M160.364 63.6692C160.364 60.3492 157.652 57.6479 154.317 57.6479C150.982 57.6479 148.269 60.3476 148.269 63.6676C148.269 66.9876 150.981 69.6888 154.316 69.6888C157.651 69.6888 160.363 66.9892 160.364 63.6692ZM150.214 63.6676C150.214 61.4155 152.055 59.5828 154.317 59.5843C156.58 59.5843 158.419 61.4171 158.419 63.6692C158.419 65.9212 156.578 67.7524 154.316 67.7524C152.054 67.7524 150.214 65.9197 150.214 63.6676Z" fill="black"/>
</svg>
