<svg width="121" height="64" viewBox="0 0 121 64" fill="none" xmlns="http://www.w3.org/2000/svg">
<path opacity="0.5" fill-rule="evenodd" clip-rule="evenodd" d="M73.2054 26.4268C74.5692 26.4268 75.6741 25.3223 75.6741 23.9598C75.6741 22.597 74.5692 21.4915 73.2054 21.4915C71.844 21.4915 70.7391 22.597 70.7391 23.9598C70.7391 25.3223 71.844 26.4268 73.2054 26.4268ZM54.2988 27.7581C54.1871 28.0383 53.3857 30.3029 51.4463 32.6501V22.6142L46.2798 23.6352V41.8271H51.4463V36.2038C52.943 38.4477 53.6817 41.8271 53.6817 41.8271H59.8702C59.258 39.2822 56.5804 34.5898 56.5804 34.5898C58.9835 31.5431 60.039 28.2966 60.2068 27.7581H54.2988ZM67.8812 27.5685C63.2539 27.7172 60.9043 29.7933 60.9043 33.9205V41.8271H65.9535V35.3792C65.9535 32.9084 66.277 31.8486 69.2091 31.7479V27.6411C68.7157 27.5361 67.8812 27.5685 67.8812 27.5685ZM37.6148 29.7616C36.9819 29.7204 35.5169 29.6256 35.5169 28.3065C35.5169 26.715 37.6261 26.715 38.4173 26.715C39.8083 26.715 41.6099 27.1255 42.8965 27.5107C42.8965 27.5107 43.6144 27.7638 44.2252 28.0228L44.2819 28.0383V27.9805V23.6792L44.204 23.6563C42.6854 23.1252 40.9198 22.6142 37.6466 22.6142C32.0026 22.6142 30.0029 25.9019 30.0029 28.7185C30.0029 30.3421 30.6986 34.1637 37.1627 34.6046C37.7103 34.638 39.1644 34.7219 39.1644 36.0847C39.1644 37.2104 37.974 37.8736 35.9719 37.8736C33.7777 37.8736 31.6484 37.3143 30.3557 36.7836V41.2727C32.2915 41.7798 34.473 42.0336 37.0305 42.0336C42.5491 42.0336 45.0206 38.9228 45.0206 35.8398C45.0206 32.3441 42.2548 30.0725 37.6148 29.7616ZM70.7019 41.8271H75.7094V27.7743H70.7019V41.8271ZM85.139 23.5097V41.8271H90.1475V22.6142L85.139 23.5097ZM77.8309 23.5097L82.8342 22.6142V41.8271H77.8309V23.5097Z" fill="#595959"/>
</svg>
