<svg width="121" height="64" viewBox="0 0 121 64" fill="none" xmlns="http://www.w3.org/2000/svg">
<g opacity="0.5">
<path d="M52.5436 23.1247L49.5399 40.0421H54.3438L57.3498 23.1247H52.5436Z" fill="#595959"/>
<path d="M45.5116 23.1439L40.8067 34.6811L40.305 32.9391C39.3771 30.8401 36.7429 27.8256 33.6504 25.9259L37.9525 40.034L43.0356 40.0257L50.6008 23.1403L45.5116 23.1439Z" fill="#595959"/>
<path d="M38.4816 24.3543C38.2024 23.3238 37.3931 23.0167 36.3886 22.9799H28.9407L28.8789 23.3167C34.6749 24.6662 38.51 27.9178 40.1014 31.8276L38.4816 24.3543Z" fill="#595959"/>
<path d="M67.0857 26.3684C68.6573 26.3447 69.7965 26.6744 70.6812 27.0159L71.1148 27.2116L71.7647 23.5449C70.8134 23.2022 69.3221 22.8346 67.4613 22.8346C62.7144 22.8346 59.3685 25.1292 59.3425 28.4176C59.3117 30.8474 61.7259 32.204 63.5496 33.014C65.4214 33.8441 66.0491 34.3718 66.0404 35.1129C66.0256 36.2454 64.5479 36.7648 63.1678 36.7648C61.244 36.7648 60.2222 36.5099 58.6445 35.879L58.0254 35.6086L57.3496 39.3951C58.4739 39.8682 60.5484 40.275 62.702 40.2963C67.7517 40.2963 71.0333 38.029 71.0679 34.5153C71.0889 32.593 69.8076 31.1261 67.0314 29.9225C65.351 29.1374 64.323 28.6156 64.3329 27.8235C64.3329 27.1203 65.2052 26.3684 67.0857 26.3684Z" fill="#595959"/>
<path d="M84.0931 23.1438H80.3815C79.2287 23.1438 78.3713 23.445 77.8647 24.5479L70.7319 40.0517H75.7766C75.7766 40.0517 76.5995 37.967 76.7861 37.5104C77.3384 37.5104 82.2398 37.5176 82.9379 37.5176C83.0812 38.1081 83.5235 40.0517 83.5235 40.0517H87.9801L84.0931 23.1438ZM78.1687 34.0477C78.564 33.0765 80.0825 29.3197 80.0825 29.3197C80.0566 29.366 80.4742 28.3414 80.7225 27.7046L81.0462 29.1632C81.0462 29.1632 81.9667 33.2022 82.1595 34.0477H78.1687Z" fill="#595959"/>
</g>
</svg>
